<?xml version="1.0" encoding="UTF-8" standalone="no"?>
<!-- Generator: Adobe Illustrator 14.0.0, SVG Export Plug-In . SVG Version: 6.00 Build 43363)  -->

<svg
   xmlns:dc="http://purl.org/dc/elements/1.1/"
   xmlns:cc="http://creativecommons.org/ns#"
   xmlns:rdf="http://www.w3.org/1999/02/22-rdf-syntax-ns#"
   xmlns:svg="http://www.w3.org/2000/svg"
   xmlns="http://www.w3.org/2000/svg"
   xmlns:sodipodi="http://sodipodi.sourceforge.net/DTD/sodipodi-0.dtd"
   xmlns:inkscape="http://www.inkscape.org/namespaces/inkscape"
   version="1.1"
   id="Camada_1"
   x="0px"
   y="0px"
   width="50.835899"
   height="48.208309"
   viewBox="0 0 50.835899 48.20831"
   enable-background="new 0 0 612 792"
   xml:space="preserve"
   sodipodi:docname="ic_home.svg"
   inkscape:version="0.92.3 (2405546, 2018-03-11)"><metadata
   id="metadata9"><rdf:RDF><cc:Work
       rdf:about=""><dc:format>image/svg+xml</dc:format><dc:type
         rdf:resource="http://purl.org/dc/dcmitype/StillImage" /><dc:title></dc:title></cc:Work></rdf:RDF></metadata><defs
   id="defs7" /><sodipodi:namedview
   pagecolor="#ffffff"
   bordercolor="#666666"
   borderopacity="1"
   objecttolerance="10"
   gridtolerance="10"
   guidetolerance="10"
   inkscape:pageopacity="0"
   inkscape:pageshadow="2"
   inkscape:window-width="1600"
   inkscape:window-height="837"
   id="namedview5"
   showgrid="false"
   fit-margin-top="0"
   fit-margin-left="0"
   fit-margin-right="0"
   fit-margin-bottom="0"
   inkscape:zoom="5.6568543"
   inkscape:cx="4.1426921"
   inkscape:cy="3.788414"
   inkscape:window-x="-8"
   inkscape:window-y="-8"
   inkscape:window-maximized="1"
   inkscape:current-layer="Camada_1"
   showguides="true"
   inkscape:guide-bbox="true"><sodipodi:guide
     position="-50.193623,-27.159786"
     orientation="1,0"
     id="guide4571"
     inkscape:locked="false" /><sodipodi:guide
     position="-17.578156,-29.676735"
     orientation="1,0"
     id="guide4573"
     inkscape:locked="false" /><sodipodi:guide
     position="-38.238114,-21.811269"
     orientation="1,0"
     id="guide4575"
     inkscape:locked="false" /><sodipodi:guide
     position="-29.953156,-21.601523"
     orientation="1,0"
     id="guide4577"
     inkscape:locked="false" /><sodipodi:guide
     position="-41.174555,-24.642837"
     orientation="0,1"
     id="guide4581"
     inkscape:locked="false" /><sodipodi:guide
     position="-38.238114,-11.848345"
     orientation="0,1"
     id="guide4583"
     inkscape:locked="false" /><sodipodi:guide
     position="-38.817079,-50.555341"
     orientation="0,1"
     id="guide4587"
     inkscape:locked="false" /></sodipodi:namedview>
<path
   style="fill:#000000;stroke-width:0.71854651"
   d=""
   id="path3710"
   inkscape:connector-curvature="0" />
<g
   id="g4602"
   transform="translate(-59.21269,24.253476)"><rect
     y="-18.100222"
     x="93.028198"
     height="15.835805"
     width="8.0752125"
     id="rect4567"
     style="opacity:1;fill:#80cbc4;fill-opacity:1;fill-rule:nonzero;stroke:none;stroke-width:0.85634887;stroke-miterlimit:4;stroke-dasharray:none;stroke-opacity:0.09166667" /><path
     sodipodi:nodetypes="ssssccccsssss"
     inkscape:connector-curvature="0"
     id="rect4569"
     d="m 71.093742,-4.329051 c -1.336284,-0.0043 -2.407075,1.075828 -2.41211,2.41211 l -0.08839,23.459664 c -0.005,1.336281 1.075819,2.412109 2.41211,2.412109 H 80.54832 V 11.054441 h 8.285157 v 12.900391 h 9.96289 c 1.336293,0 2.417163,-1.075829 2.412113,-2.412109 l -0.0884,-23.371276 c -0.005,-1.336281 -1.07583,-2.407833 -2.412113,-2.41211 z"
     style="opacity:1;fill:#26a69a;fill-opacity:1;fill-rule:nonzero;stroke:none;stroke-width:1.0724268;stroke-miterlimit:4;stroke-dasharray:none;stroke-opacity:0.09166667" /><path
     sodipodi:nodetypes="cccc"
     inkscape:connector-curvature="0"
     id="rect3751"
     d="M 110.04859,1.982886 59.21269,2.020962 84.906056,-24.253476 Z"
     style="opacity:1;fill:#80cbc4;fill-opacity:1;fill-rule:nonzero;stroke:none;stroke-width:2.01368189;stroke-miterlimit:4;stroke-dasharray:none;stroke-opacity:0.09166667" /></g></svg>