<?xml version="1.0" encoding="UTF-8"?>
<!DOCTYPE svg PUBLIC "-//W3C//DTD SVG 1.1//EN" "http://www.w3.org/Graphics/SVG/1.1/DTD/svg11.dtd">
<!-- Creator: CorelDRAW X5 -->
<svg xmlns="http://www.w3.org/2000/svg" xml:space="preserve" width="50.8mm" height="50.8mm" style="shape-rendering:geometricPrecision; text-rendering:geometricPrecision; image-rendering:optimizeQuality; fill-rule:evenodd; clip-rule:evenodd"
viewBox="0 0 5080 5080"
 xmlns:xlink="http://www.w3.org/1999/xlink">
 <defs>
  <style type="text/css">
   <![CDATA[
    .fil3 {fill:#C62828}
    .fil6 {fill:#CFD8DC}
    .fil0 {fill:#E1E1E1}
    .fil4 {fill:#E53935}
    .fil1 {fill:#EBEBEB}
    .fil2 {fill:whitesmoke}
    .fil5 {fill:#FDD835}
   ]]>
  </style>
 </defs>
 <g id="Camada_x0020_1">
  <metadata id="CorelCorpID_0Corel-Layer"/>
  <g id="_232934960">
   <rect class="fil0" x="858" y="872" width="3364" height="3336" rx="237" ry="237"/>
   <path class="fil1" d="M4222 1391l0 2521c0,130 -107,237 -237,237l-2890 0c-130,0 -237,-107 -237,-237l0 -2521 3364 0z"/>
   <path class="fil2" d="M4222 1436l0 2408c0,130 -107,237 -237,237l-2890 0c-130,0 -237,-107 -237,-237l0 -2408 3364 0z"/>
   <path class="fil3" d="M1095 906l2890 0c130,0 237,107 237,237l0 546 -3364 0 0 -546c0,-130 107,-237 237,-237z"/>
   <path class="fil4" d="M1095 872l2890 0c130,0 237,107 237,237l0 546 -3364 0 0 -546c0,-130 107,-237 237,-237z"/>
   <path class="fil5" d="M2736 2594l411 0c1,0 2,0 3,0l0 0 2 0 1 0 1 0 1 0 0 0c9,1 18,3 25,7l0 0 2 1 0 0 2 1c7,4 14,9 19,15l0 0 1 1 0 0 1 1 0 1 1 1 1 1 0 0c4,5 7,11 10,18l0 0 1 1 0 0 0 1 0 1 0 0 0 1 0 0 0 1 0 1 0 0 0 2c2,7 2,13 2,20l0 0 0 2 0 1 0 1 0 1 0 0c-1,9 -3,18 -7,25l0 0 -1 2 0 0 -1 2c-4,7 -9,14 -15,19l0 0 -1 1 0 0 -1 1 -1 0 -1 1 -1 1 0 0c-1,1 -1,1 -2,2l-333 240 128 390c13,39 -8,80 -47,93 -2,1 -3,1 -5,1l0 0 -1 0c-20,5 -43,1 -61,-12l-331 -242 -333 242c-10,7 -22,12 -34,13 -11,1 -22,1 -33,-3 -39,-13 -60,-54 -47,-93l128 -390 -332 -240c-1,0 -1,-1 -2,-2l0 0 -1 -1 -1 -1 -1 0 -1 -1 0 0 -1 -1 0 0c-6,-6 -11,-12 -15,-19l-1 -2 0 0 -1 -2 0 0c-4,-8 -6,-16 -7,-25l0 0 0 -1 0 -1 0 -1 0 -2 0 0c0,-7 1,-14 2,-20l0 -2 0 0 0 -1 0 -1 0 0 0 -1 0 0 0 -1 0 -1 0 0 1 -1 0 0c2,-6 6,-12 10,-18l0 0 1 -1 1 -1 0 -1 1 -1 0 0 1 -1 0 0c6,-6 12,-11 19,-15l2 -1 0 0 2 -1 0 0c8,-4 16,-6 25,-7l0 0 1 0 1 0 1 0 2 0 0 0c1,0 2,0 3,0l411 0 126 -392c12,-39 54,-60 92,-47 24,8 42,27 48,50l126 389z"/>
   <rect class="fil6" x="1287" y="812" width="256" height="327" rx="51" ry="51"/>
   <rect class="fil6" x="3537" y="812" width="256" height="327" rx="51" ry="51"/>
  </g>
 </g>
</svg>
