<?xml version="1.0" encoding="UTF-8"?>
<!DOCTYPE svg PUBLIC "-//W3C//DTD SVG 1.1//EN" "http://www.w3.org/Graphics/SVG/1.1/DTD/svg11.dtd">
<!-- Creator: CorelDRAW X5 -->
<svg xmlns="http://www.w3.org/2000/svg" xml:space="preserve" width="50.8mm" height="50.8mm" style="shape-rendering:geometricPrecision; text-rendering:geometricPrecision; image-rendering:optimizeQuality; fill-rule:evenodd; clip-rule:evenodd"
viewBox="0 0 5080 5080"
 xmlns:xlink="http://www.w3.org/1999/xlink">
 <defs>
  <style type="text/css">
   <![CDATA[
    .fil0 {fill:#AB47BC}
    .fil3 {fill:#E1E1E1}
    .fil2 {fill:#EBEBEB}
    .fil1 {fill:whitesmoke}
    .fil4 {fill:#E1E1E1;fill-rule:nonzero}
   ]]>
  </style>
 </defs>
 <g id="Camada_x0020_1">
  <metadata id="CorelCorpID_0Corel-Layer"/>
  <rect class="fil0" x="858" y="872" width="3364" height="3336" rx="237" ry="237"/>
  <g id="_232537896">
  </g>
  <g id="_232537824">
  </g>
  <g id="_232537752">
  </g>
  <g id="_232537680">
  </g>
  <g id="_232537608">
  </g>
  <g id="_232537536">
  </g>
  <g id="_232537464">
  </g>
  <g id="_232536432">
  </g>
  <g id="_232536384">
  </g>
  <g id="_232536768">
  </g>
  <g id="_232536816">
  </g>
  <g id="_232536504">
  </g>
  <g id="_232535664">
  </g>
  <g id="_232536288">
  </g>
  <g id="_232536024">
  </g>
  <polygon class="fil1" points="1651,2246 4023,1509 2137,2502 "/>
  <polygon class="fil1" points="2391,2653 2986,2957 4023,1509 "/>
  <polygon class="fil2" points="2137,2502 2307,3046 2391,2653 4023,1509 "/>
  <polygon class="fil3" points="2307,3046 2606,2763 2391,2653 "/>
  <path class="fil4" d="M2214 3094c0,-11 -9,-20 -19,-21 -10,-1 -19,6 -22,15 -1,2 -2,4 -4,5 -13,19 -29,36 -44,53 -7,8 -7,18 -2,27 8,11 24,12 33,2 16,-18 32,-36 46,-55 6,-8 11,-15 12,-25zm-1020 456c-28,2 -27,42 1,42l7 0 8 0 8 0 8 0 8 0 8 0 8 -1 8 -1 8 -1 8 -1 4 0c25,-2 27,-40 -1,-42l-2 0 -4 0 -8 1 -8 1 -8 1 -8 1 -8 0 -8 0 -8 0 -8 0 -8 0 -7 0zm207 -21c-24,4 -23,42 4,42l3 0 7 -1 7 -1 7 -1 7 -1 7 -1 7 -2 7 -2 7 -2 7 -2 7 -2 7 -2 4 -1c27,-6 18,-48 -10,-41l-4 1 -7 2 -7 2 -7 2 -7 2 -7 1 -7 1 -7 1 -7 1 -7 1 -7 1 -7 1zm202 -52c-22,7 -17,43 9,41 2,0 3,-1 5,-1l1 0 6 -2 6 -2 6 -2 6 -2 6 -2 6 -2 6 -2 6 -2 6 -2 6 -2 6 -2 6 -2 5 -2c23,-9 14,-46 -14,-40l-2 1 -5 2 -6 2 -6 2 -6 2 -6 2 -6 2 -6 2 -6 2 -6 2 -6 2 -6 2 -6 2 -6 2 -1 0zm191 -82c-23,12 -8,49 19,38l1 -1 2 -1 5 -3 5 -3 5 -3 5 -3 5 -3 5 -3 5 -3 5 -3 5 -3 5 -3 5 -3 5 -3 5 -3 5 -3 3 -2c22,-13 4,-49 -21,-37l-1 1 -2 1 -5 3 -5 3 -5 3 -5 3 -5 3 -5 3 -5 3 -5 3 -5 3 -5 3 -5 3 -5 3 -5 3 -5 3 -2 1zm176 -111c-18,13 -5,43 18,37 3,-1 5,-2 8,-4l3 -2 4 -3 4 -3 4 -3 4 -3 4 -3 4 -3 4 -3 4 -3 4 -3 4 -3 4 -3 3 -3 3 -3 3 -3 3 -3 3 -3 3 -3 3 -3 1 -1c20,-18 -4,-49 -27,-32l-1 0 -1 1 -3 3 -3 3 -3 3 -3 3 -3 3 -3 3 -3 3 -3 3 -3 3 -3 3 -3 3 -4 3 -4 3 -4 3 -4 3 -4 3 -4 3 -4 3 -3 2z"/>
 </g>
</svg>
