<?xml version="1.0" encoding="UTF-8"?>
<!DOCTYPE svg PUBLIC "-//W3C//DTD SVG 1.1//EN" "http://www.w3.org/Graphics/SVG/1.1/DTD/svg11.dtd">
<!-- Creator: CorelDRAW X5 -->
<svg xmlns="http://www.w3.org/2000/svg" xml:space="preserve" width="50.8mm" height="50.8mm" style="shape-rendering:geometricPrecision; text-rendering:geometricPrecision; image-rendering:optimizeQuality; fill-rule:evenodd; clip-rule:evenodd"
viewBox="0 0 5080 5080"
 xmlns:xlink="http://www.w3.org/1999/xlink">
 <defs>
  <style type="text/css">
   <![CDATA[
    .fil5 {fill:#00BCD4}
    .fil1 {fill:#4CAF50}
    .fil3 {fill:#F44336}
    .fil4 {fill:whitesmoke}
    .fil0 {fill:#FFC107}
    .fil2 {fill:whitesmoke;fill-rule:nonzero}
   ]]>
  </style>
 </defs>
 <g id="Camada_x0020_1">
  <metadata id="CorelCorpID_0Corel-Layer"/>
  <path class="fil0" d="M3985 872l-1445 0 0 658 135 135c23,23 23,61 0,84l-135 135 0 655 0 0 0 3 665 -1 134 134c23,23 61,23 84,0l135 -135 665 -1 0 -1431c0,-130 -107,-237 -237,-237z"/>
  <path class="fil1" d="M1095 872l1445 0 0 658 135 135c23,23 23,61 0,84l-135 135 0 655 -665 1 -134 -134c-23,-23 -61,-23 -84,0l-135 135 -653 1 -12 0 0 -1431c0,-130 107,-237 237,-237z"/>
  <path class="fil2" d="M1303 1661c-21,13 -48,6 -60,-15 -13,-21 -6,-48 15,-60l418 -254c15,-9 33,-8 46,0l210 128 0 -21c0,-25 20,-46 46,-46 25,0 46,20 46,46l0 77 115 70c21,13 27,40 15,60 -13,21 -40,27 -60,15l-395 -240 -396 240zm755 35l0 314c0,21 -9,40 -23,54l0 0 0 0c-14,14 -33,23 -55,23l-190 0 0 -231c0,-22 -18,-40 -40,-40l-106 0c-22,0 -40,18 -40,40l0 231 -190 0c-21,0 -40,-9 -54,-23l0 0 0 0c-14,-14 -23,-33 -23,-54l0 -308c0,-15 9,-29 22,-35l318 -193c13,-8 28,-7 39,0l0 0 321 190c12,7 19,20 19,33l0 0z"/>
  <path class="fil3" d="M1095 4208l1445 0 0 -658 -135 -135c-23,-23 -23,-61 0,-84l135 -135 0 -655 0 0 0 -3 -665 1 -134 -134c-23,-23 -61,-23 -84,0l-135 135 -665 1 0 1431c0,130 107,237 237,237z"/>
  <path class="fil4" d="M1273 3150l0 118c0,15 12,27 27,27l13 0c15,0 27,-12 27,-27l0 -118c0,-15 -12,-27 -27,-27l-13 0c-15,0 -27,12 -27,27zm157 -195l537 0c42,0 77,35 77,77l0 571c0,42 -35,77 -77,77l-10 0 0 85c0,15 -12,28 -28,28l-65 0c-15,0 -28,-12 -28,-28l0 -85 -276 0 0 85c0,15 -12,28 -28,28l-65 0c-15,0 -28,-12 -28,-28l0 -85 -10 0c-42,0 -77,-35 -77,-77l0 -571c0,-42 35,-77 77,-77zm382 640l-228 0c-9,0 -16,7 -16,16l0 0c0,9 7,16 16,16l228 0c9,0 16,-7 16,-16l0 0c0,-9 -7,-16 -16,-16zm98 51c-25,0 -45,-20 -45,-45 0,-25 20,-45 45,-45 25,0 45,20 45,45 0,25 -20,45 -45,45zm-424 0c-25,0 -45,-20 -45,-45 0,-25 20,-45 45,-45 25,0 45,20 45,45 0,25 -20,45 -45,45zm399 -647l-374 0c-9,0 -16,7 -16,16l0 0c0,9 7,16 16,16l374 0c9,0 16,-7 16,-16l0 0c0,-9 -7,-16 -16,-16zm-442 64l510 0c16,0 29,13 29,29l0 394c0,16 -13,29 -29,29l-510 0c-16,0 -29,-13 -29,-29l0 -394c0,-16 13,-29 29,-29zm615 87l0 118c0,15 12,27 27,27l13 0c15,0 27,-12 27,-27l0 -118c0,-15 -12,-27 -27,-27l-13 0c-15,0 -27,12 -27,27z"/>
  <path class="fil5" d="M3985 4208l-1445 0 0 -658 -135 -135c-23,-23 -23,-61 0,-84l135 -135 0 -655 665 -1 134 134c23,23 61,23 84,0l135 -135 659 -1 6 0 0 1431c0,130 -107,237 -237,237z"/>
  <path class="fil4" d="M3258 3284c20,0 36,28 36,62 0,34 -16,62 -36,62 -20,0 -36,-28 -36,-62 0,-34 16,-62 36,-62zm-27 296c-7,-5 -9,-16 -4,-23 5,-7 16,-9 23,-4 44,32 87,48 131,48 43,0 87,-16 131,-48 7,-5 18,-4 23,4 5,7 4,18 -4,23 -50,36 -100,54 -150,54 -50,0 -100,-18 -150,-55zm121 -484c6,0 10,5 9,11 0,6 -5,10 -11,9 -15,-1 -29,2 -39,9 -9,6 -15,14 -16,24 -1,10 4,19 12,26 9,8 22,13 37,15 0,0 1,0 1,0 32,2 62,-5 84,-19 21,-13 35,-33 37,-55 0,0 0,-1 0,-1 2,-22 -9,-44 -28,-60 -9,-8 -21,-15 -34,-21 -8,-1 -16,-1 -24,-1 -92,0 -176,33 -239,86 -64,54 -108,129 -118,214l-2 18 -19 0 -1 0 0 0c-11,0 -22,5 -30,14 -8,9 -13,22 -13,36 0,14 5,27 13,36 8,9 18,14 30,14 2,0 3,0 4,0l0 0c1,0 3,0 4,-1l19 -4 6 19c21,72 68,134 129,179 60,43 135,69 217,69 82,0 157,-26 217,-69 62,-44 108,-107 129,-179l6 -19 19 5c1,0 3,1 4,1l0 0c1,0 3,0 4,0 11,0 22,-5 30,-14 8,-9 13,-22 13,-36 0,-14 -5,-27 -13,-36 -8,-9 -18,-14 -30,-14l0 0 -2 0 -19 0 -2 -18c-10,-85 -54,-160 -118,-214 -46,-39 -104,-67 -167,-79 23,21 36,48 34,77l0 0c-2,29 -20,54 -46,71 -26,16 -60,25 -97,22l0 0c-20,-1 -37,-9 -49,-20 -13,-11 -21,-27 -19,-43 1,-16 11,-30 26,-40 14,-9 32,-13 52,-12zm-367 216c15,-89 62,-167 130,-224 71,-60 164,-96 266,-96 102,0 195,36 266,96 68,57 115,136 130,224 17,4 32,13 44,26 15,16 24,39 24,64 0,25 -9,47 -24,64 -15,17 -36,27 -59,28 -26,74 -75,138 -139,184 -67,48 -151,77 -241,77 -90,0 -174,-29 -241,-77 -64,-46 -113,-110 -139,-184 -23,0 -44,-11 -59,-28 -15,-16 -24,-39 -24,-64 0,-25 9,-47 24,-64 12,-13 26,-22 43,-26zm519 -28c20,0 36,28 36,62 0,34 -16,62 -36,62 -20,0 -36,-28 -36,-62 0,-34 16,-62 36,-62z"/>
  <path class="fil4" d="M3024 1665c3,-1 5,-2 7,-3 19,-9 35,-27 45,-50 8,-18 12,-39 12,-62l0 -1 0 0 0 -45 0 -19 0 -16 0 -24c0,-6 -5,-12 -12,-12 -6,0 -12,5 -12,12l0 9 0 31 0 42 0 9 0 12c0,6 -5,12 -12,12 -6,0 -11,-4 -12,-10 0,0 0,-1 0,-1l0 -14 0 -50 0 -41c0,0 0,-1 0,-1 0,-6 -6,-11 -12,-11 -4,0 -7,2 -9,5 -2,2 -2,4 -2,7l0 41 0 47 0 17c0,6 -5,12 -12,12 -6,0 -12,-5 -12,-12l0 -17 0 -47 0 -41c0,-6 -5,-11 -11,-12 0,0 -1,0 -1,0 0,0 0,0 -1,0 -1,0 -2,0 -2,0 -5,1 -9,6 -9,11l0 41 0 49 0 15c0,6 -5,12 -12,12 -6,0 -12,-5 -12,-12l0 -12 0 -52 0 -41c0,-3 -1,-6 -3,-8 -2,-2 -5,-3 -8,-3 -5,0 -10,4 -11,8 0,1 0,2 0,3l0 41 0 64 0 0 0 0 0 1c0,2 0,4 0,6 1,20 5,39 12,55 4,10 10,19 16,27 8,10 17,18 27,23 3,1 6,3 9,4l0 303c0,8 6,14 14,14l7 0c8,0 14,-6 14,-14l0 -303zm400 -164c114,0 206,92 206,206 0,114 -92,206 -206,206 -114,0 -206,-92 -206,-206 0,-114 92,-206 206,-206zm0 -130c186,0 336,150 336,336 0,186 -150,336 -336,336 -186,0 -336,-150 -336,-336 0,-186 150,-336 336,-336zm0 109c126,0 227,102 227,227 0,126 -102,227 -227,227 -126,0 -227,-102 -227,-227 0,-126 102,-227 227,-227zm458 381l0 -12 0 -72 0 -43 0 -71 0 -3 0 -53 0 -20 0 -107 0 -43 0 -9c-2,0 -4,0 -7,0 -25,3 -48,23 -61,52 -7,14 -11,31 -13,49 -1,5 -1,11 -1,16 0,23 4,44 12,62 2,4 4,8 6,12 8,14 18,25 29,33l0 8 0 73 0 81 0 3 0 44 0 30 0 50 0 23c0,8 6,14 14,14l7 0c8,0 14,-6 14,-14l0 -47 0 -26 0 -30z"/>
 </g>
</svg>
